<?xml version="1.0" encoding="UTF-8" standalone="no"?>
<!-- Created with Inkscape (http://www.inkscape.org/) -->

<svg
   xmlns:dc="http://purl.org/dc/elements/1.1/"
   xmlns:cc="http://creativecommons.org/ns#"
   xmlns:rdf="http://www.w3.org/1999/02/22-rdf-syntax-ns#"
   xmlns:svg="http://www.w3.org/2000/svg"
   xmlns="http://www.w3.org/2000/svg"
   xmlns:sodipodi="http://sodipodi.sourceforge.net/DTD/sodipodi-0.dtd"
   xmlns:inkscape="http://www.inkscape.org/namespaces/inkscape"
   width="1000"
   height="1000"
   id="svg4455"
   version="1.1"
   inkscape:version="0.48.4 r9939"
   sodipodi:docname="q.svg">
  <defs
     id="defs4457" />
  <sodipodi:namedview
     id="base"
     pagecolor="#ffffff"
     bordercolor="#666666"
     borderopacity="1.0"
     inkscape:pageopacity="0.0"
     inkscape:pageshadow="2"
     inkscape:zoom="0.52101742"
     inkscape:cx="438.06097"
     inkscape:cy="688.99751"
     inkscape:document-units="px"
     inkscape:current-layer="layer1"
     showgrid="false"
     width="1000px"
     showguides="true"
     inkscape:guide-bbox="true"
     inkscape:window-width="1440"
     inkscape:window-height="858"
     inkscape:window-x="0"
     inkscape:window-y="19"
     inkscape:window-maximized="1"
     inkscape:snap-grids="false"
     inkscape:snap-to-guides="false">
    <sodipodi:guide
       orientation="0,1"
       position="488.87116,243.35877"
       id="guide4998" />
  </sodipodi:namedview>
  <metadata
     id="metadata4460">
    <rdf:RDF>
      <cc:Work
         rdf:about="">
        <dc:format>image/svg+xml</dc:format>
        <dc:type
           rdf:resource="http://purl.org/dc/dcmitype/StillImage" />
        <dc:title />
      </cc:Work>
    </rdf:RDF>
  </metadata>
  <g
     inkscape:label="Layer 1"
     inkscape:groupmode="layer"
     id="layer1"
     transform="translate(0,-52.362183)">
    <path
       style="fill:none;stroke:#000000;stroke-width:1px;stroke-linecap:butt;stroke-linejoin:miter;stroke-opacity:1"
       d="M 164.51183,542.21776 838.07095,539.9279"
       id="anchor"
       inkscape:connector-curvature="0"
       inkscape:label="#path3111"
       sodipodi:nodetypes="cc" />
    <path
       style="fill:none;stroke:#000000;stroke-width:21.72779274;stroke-linecap:round;stroke-linejoin:round;stroke-opacity:1"
       d="m 368.93022,822.22739 c -72.28838,-0.003 -144.57676,-27.5754 -199.74366,-82.70985 -110.2468,-110.247 -110.2468,-289.1319 0,-399.4656 55.1669,-55.12341 127.4716,-82.68511 199.76541,-82.68511 l 135,0 c 72.29381,0 144.57673,27.5617 199.70008,82.68511 110.29035,110.3337 110.31207,289.1317 0.0216,399.4869 l 2.3e-4,-0.0213 c -55.1669,55.14535 -127.45528,82.71258 -199.74366,82.70985 z"
       id="path3293"
       inkscape:connector-curvature="0"
       sodipodi:nodetypes="cccccccccc" />
    <path
       style="fill:none;stroke:#000000;stroke-width:21.72779274;stroke-linecap:round;stroke-linejoin:round;stroke-opacity:1"
       d="M 620.93443,656.73494 786.3915,822.23564"
       id="letter" />
  </g>
</svg>
