<?xml version="1.0" encoding="UTF-8" standalone="no"?>
<!-- Created with Inkscape (http://www.inkscape.org/) -->

<svg
   xmlns:dc="http://purl.org/dc/elements/1.1/"
   xmlns:cc="http://creativecommons.org/ns#"
   xmlns:rdf="http://www.w3.org/1999/02/22-rdf-syntax-ns#"
   xmlns:svg="http://www.w3.org/2000/svg"
   xmlns="http://www.w3.org/2000/svg"
   xmlns:sodipodi="http://sodipodi.sourceforge.net/DTD/sodipodi-0.dtd"
   xmlns:inkscape="http://www.inkscape.org/namespaces/inkscape"
   width="1000"
   height="1000"
   id="svg4455"
   version="1.1"
   inkscape:version="0.48.4 r9939"
   sodipodi:docname="s.svg">
  <defs
     id="defs4457" />
  <sodipodi:namedview
     id="base"
     pagecolor="#ffffff"
     bordercolor="#666666"
     borderopacity="1.0"
     inkscape:pageopacity="0.0"
     inkscape:pageshadow="2"
     inkscape:zoom="0.52101742"
     inkscape:cx="431.58838"
     inkscape:cy="504.40421"
     inkscape:document-units="px"
     inkscape:current-layer="layer1"
     showgrid="false"
     width="1000px"
     showguides="true"
     inkscape:guide-bbox="true"
     inkscape:window-width="1440"
     inkscape:window-height="858"
     inkscape:window-x="0"
     inkscape:window-y="19"
     inkscape:window-maximized="1"
     inkscape:snap-grids="false"
     inkscape:snap-to-guides="false">
    <sodipodi:guide
       orientation="0,1"
       position="488.87116,243.35877"
       id="guide4998" />
  </sodipodi:namedview>
  <metadata
     id="metadata4460">
    <rdf:RDF>
      <cc:Work
         rdf:about="">
        <dc:format>image/svg+xml</dc:format>
        <dc:type
           rdf:resource="http://purl.org/dc/dcmitype/StillImage" />
        <dc:title />
      </cc:Work>
    </rdf:RDF>
  </metadata>
  <g
     inkscape:label="Layer 1"
     inkscape:groupmode="layer"
     id="layer1"
     transform="translate(0,-52.362183)">
    <path
       style="fill:none;stroke:#000000;stroke-width:1px;stroke-linecap:butt;stroke-linejoin:miter;stroke-opacity:1"
       d="M 196.21348,386.90596 567.81501,655.26937"
       id="anchor"
       inkscape:connector-curvature="0"
       inkscape:label="#path3111"
       sodipodi:nodetypes="cc" />
    <path
       style="fill:none;stroke:#000000;stroke-width:21.72800064;stroke-linecap:round;stroke-linejoin:round;stroke-miterlimit:4;stroke-dasharray:none;display:inline"
       d="m 21.24966,660.0686 c 0,85.85128 69.5113,155.36235 155.3191,155.36235 l 190,0 c 85.8078,0 155.3624,-69.51107 155.3624,-155.36235 0,-85.00384 -68.3377,-154.2759 -153.4502,-156.05767 l -190,0 c -70.2716,-0.71706 -127.2016,-57.66877 -127.2016,-127.87517 0,-70.16294 56.9083,-127.11465 127.1147,-127.11465 l 190,0 c 69.5545,0 126.1803,55.88699 127.1146,125.44152"
       id="path3289"
       inkscape:connector-curvature="0"
       sodipodi:nodetypes="cccsccsccc" />
  </g>
</svg>
